Lab3/waveform.vcd
$version Generated by VerilatedVcd $end
$timescale 1ps $end
 $scope module TOP $end
  $var wire 1 # reset $end
  $var wire 1 $ clk $end
  $var wire 1 % is_halted $end
  $var wire 32 & print_reg[0] [31:0] $end
  $var wire 32 ' print_reg[1] [31:0] $end
  $var wire 32 ( print_reg[2] [31:0] $end
  $var wire 32 ) print_reg[3] [31:0] $end
  $var wire 32 * print_reg[4] [31:0] $end
  $var wire 32 + print_reg[5] [31:0] $end
  $var wire 32 , print_reg[6] [31:0] $end
  $var wire 32 - print_reg[7] [31:0] $end
  $var wire 32 . print_reg[8] [31:0] $end
  $var wire 32 / print_reg[9] [31:0] $end
  $var wire 32 0 print_reg[10] [31:0] $end
  $var wire 32 1 print_reg[11] [31:0] $end
  $var wire 32 2 print_reg[12] [31:0] $end
  $var wire 32 3 print_reg[13] [31:0] $end
  $var wire 32 4 print_reg[14] [31:0] $end
  $var wire 32 5 print_reg[15] [31:0] $end
  $var wire 32 6 print_reg[16] [31:0] $end
  $var wire 32 7 print_reg[17] [31:0] $end
  $var wire 32 8 print_reg[18] [31:0] $end
  $var wire 32 9 print_reg[19] [31:0] $end
  $var wire 32 : print_reg[20] [31:0] $end
  $var wire 32 ; print_reg[21] [31:0] $end
  $var wire 32 < print_reg[22] [31:0] $end
  $var wire 32 = print_reg[23] [31:0] $end
  $var wire 32 > print_reg[24] [31:0] $end
  $var wire 32 ? print_reg[25] [31:0] $end
  $var wire 32 @ print_reg[26] [31:0] $end
  $var wire 32 A print_reg[27] [31:0] $end
  $var wire 32 B print_reg[28] [31:0] $end
  $var wire 32 C print_reg[29] [31:0] $end
  $var wire 32 D print_reg[30] [31:0] $end
  $var wire 32 E print_reg[31] [31:0] $end
  $scope module top $end
   $var wire 1 F reset $end
   $var wire 1 G clk $end
   $var wire 1 H is_halted $end
   $var wire 32 I print_reg[0] [31:0] $end
   $var wire 32 J print_reg[1] [31:0] $end
   $var wire 32 K print_reg[2] [31:0] $end
   $var wire 32 L print_reg[3] [31:0] $end
   $var wire 32 M print_reg[4] [31:0] $end
   $var wire 32 N print_reg[5] [31:0] $end
   $var wire 32 O print_reg[6] [31:0] $end
   $var wire 32 P print_reg[7] [31:0] $end
   $var wire 32 Q print_reg[8] [31:0] $end
   $var wire 32 R print_reg[9] [31:0] $end
   $var wire 32 S print_reg[10] [31:0] $end
   $var wire 32 T print_reg[11] [31:0] $end
   $var wire 32 U print_reg[12] [31:0] $end
   $var wire 32 V print_reg[13] [31:0] $end
   $var wire 32 W print_reg[14] [31:0] $end
   $var wire 32 X print_reg[15] [31:0] $end
   $var wire 32 Y print_reg[16] [31:0] $end
   $var wire 32 Z print_reg[17] [31:0] $end
   $var wire 32 [ print_reg[18] [31:0] $end
   $var wire 32 \ print_reg[19] [31:0] $end
   $var wire 32 ] print_reg[20] [31:0] $end
   $var wire 32 ^ print_reg[21] [31:0] $end
   $var wire 32 _ print_reg[22] [31:0] $end
   $var wire 32 ` print_reg[23] [31:0] $end
   $var wire 32 a print_reg[24] [31:0] $end
   $var wire 32 b print_reg[25] [31:0] $end
   $var wire 32 c print_reg[26] [31:0] $end
   $var wire 32 d print_reg[27] [31:0] $end
   $var wire 32 e print_reg[28] [31:0] $end
   $var wire 32 f print_reg[29] [31:0] $end
   $var wire 32 g print_reg[30] [31:0] $end
   $var wire 32 h print_reg[31] [31:0] $end
   $scope module cpu $end
    $var wire 1 i reset $end
    $var wire 1 j clk $end
    $var wire 1 k is_halted $end
    $var wire 32 l print_reg[0] [31:0] $end
    $var wire 32 m print_reg[1] [31:0] $end
    $var wire 32 n print_reg[2] [31:0] $end
    $var wire 32 o print_reg[3] [31:0] $end
    $var wire 32 p print_reg[4] [31:0] $end
    $var wire 32 q print_reg[5] [31:0] $end
    $var wire 32 r print_reg[6] [31:0] $end
    $var wire 32 s print_reg[7] [31:0] $end
    $var wire 32 t print_reg[8] [31:0] $end
    $var wire 32 u print_reg[9] [31:0] $end
    $var wire 32 v print_reg[10] [31:0] $end
    $var wire 32 w print_reg[11] [31:0] $end
    $var wire 32 x print_reg[12] [31:0] $end
    $var wire 32 y print_reg[13] [31:0] $end
    $var wire 32 z print_reg[14] [31:0] $end
    $var wire 32 { print_reg[15] [31:0] $end
    $var wire 32 | print_reg[16] [31:0] $end
    $var wire 32 } print_reg[17] [31:0] $end
    $var wire 32 ~ print_reg[18] [31:0] $end
    $var wire 32 !! print_reg[19] [31:0] $end
    $var wire 32 "! print_reg[20] [31:0] $end
    $var wire 32 #! print_reg[21] [31:0] $end
    $var wire 32 $! print_reg[22] [31:0] $end
    $var wire 32 %! print_reg[23] [31:0] $end
    $var wire 32 &! print_reg[24] [31:0] $end
    $var wire 32 '! print_reg[25] [31:0] $end
    $var wire 32 (! print_reg[26] [31:0] $end
    $var wire 32 )! print_reg[27] [31:0] $end
    $var wire 32 *! print_reg[28] [31:0] $end
    $var wire 32 +! print_reg[29] [31:0] $end
    $var wire 32 ,! print_reg[30] [31:0] $end
    $var wire 32 -! print_reg[31] [31:0] $end
    $var wire 1 .! PCWriteCond $end
    $var wire 1 /! PCWrite $end
    $var wire 1 0! IorD $end
    $var wire 1 1! MemRead $end
    $var wire 1 2! MemWrite $end
    $var wire 1 3! MemtoReg $end
    $var wire 1 4! IRWrite $end
    $var wire 1 5! PCSource $end
    $var wire 2 6! ALUOp [1:0] $end
    $var wire 2 7! ALUSrcB [1:0] $end
    $var wire 1 8! ALUSrcA $end
    $var wire 1 9! RegWrite $end
    $var wire 32 :! WriteData [31:0] $end
    $var wire 32 ;! MemData [31:0] $end
    $var wire 32 <! regA_value [31:0] $end
    $var wire 32 =! regB_value [31:0] $end
    $var wire 32 >! immediate [31:0] $end
    $var wire 32 ?! current_pc [31:0] $end
    $var wire 32 @! next_pc [31:0] $end
    $var wire 32 A! addr [31:0] $end
    $var wire 32 B! alu_in_1 [31:0] $end
    $var wire 32 C! alu_in_2 [31:0] $end
    $var wire 4 D! ALUControl [3:0] $end
    $var wire 32 E! alu_result [31:0] $end
    $var wire 1 F! alu_bcond $end
    $var wire 1 G! is_ecall $end
    $var wire 1 H! ecall_reg_cond $end
    $var wire 32 I! IR [31:0] $end
    $var wire 32 J! MDR [31:0] $end
    $var wire 32 K! A [31:0] $end
    $var wire 32 L! B [31:0] $end
    $var wire 32 M! ALUOut [31:0] $end
    $scope module alu $end
     $var wire 4 N! ALUControl [3:0] $end
     $var wire 32 O! alu_in_1 [31:0] $end
     $var wire 32 P! alu_in_2 [31:0] $end
     $var wire 32 Q! alu_result [31:0] $end
     $var wire 1 R! alu_bcond $end
    $upscope $end
    $scope module alu_ctrl_unit $end
     $var wire 4 S! functs [3:0] $end
     $var wire 7 T! opcode [6:0] $end
     $var wire 2 U! ALUOp [1:0] $end
     $var wire 4 V! ALUControl [3:0] $end
    $upscope $end
    $scope module ctrl_unit $end
     $var wire 1 W! reset $end
     $var wire 1 X! clk $end
     $var wire 7 Y! opcode [6:0] $end
     $var wire 1 Z! PCWriteCond $end
     $var wire 1 [! PCWrite $end
     $var wire 1 \! IorD $end
     $var wire 1 ]! MemRead $end
     $var wire 1 ^! MemWrite $end
     $var wire 1 _! MemtoReg $end
     $var wire 1 `! IRWrite $end
     $var wire 1 a! PCSource $end
     $var wire 2 b! ALUOp [1:0] $end
     $var wire 2 c! ALUSrcB [1:0] $end
     $var wire 1 d! ALUSrcA $end
     $var wire 1 e! RegWrite $end
     $var wire 1 f! is_ecall $end
     $var wire 4 g! current_state [3:0] $end
     $var wire 4 h! next_state [3:0] $end
     $scope module state_machine $end
      $var wire 7 i! opcode [6:0] $end
      $var wire 4 j! current_state [3:0] $end
      $var wire 4 k! next_state [3:0] $end
     $upscope $end
     $scope module state_to_control $end
      $var wire 4 l! current_state [3:0] $end
      $var wire 1 m! PCWriteCond $end
      $var wire 1 n! PCWrite $end
      $var wire 1 o! IorD $end
      $var wire 1 p! MemRead $end
      $var wire 1 q! MemWrite $end
      $var wire 1 r! MemtoReg $end
      $var wire 1 s! IRWrite $end
      $var wire 1 t! PCSource $end
      $var wire 2 u! ALUOp [1:0] $end
      $var wire 2 v! ALUSrcB [1:0] $end
      $var wire 1 w! ALUSrcA $end
      $var wire 1 x! RegWrite $end
     $upscope $end
    $upscope $end
    $scope module imm_gen $end
     $var wire 32 y! IR [31:0] $end
     $var wire 32 z! imm_gen_out [31:0] $end
     $var wire 7 {! opcode [6:0] $end
    $upscope $end
    $scope module memory $end
     $var wire 32 y" MEM_DEPTH [31:0] $end
     $var wire 1 |! reset $end
     $var wire 1 }! clk $end
     $var wire 32 ~! addr [31:0] $end
     $var wire 32 !" din [31:0] $end
     $var wire 1 "" mem_read $end
     $var wire 1 #" mem_write $end
     $var wire 32 $" dout [31:0] $end
     $var wire 32 %" i [31:0] $end
     $var wire 32 &" mem_addr [31:0] $end
    $upscope $end
    $scope module pc $end
     $var wire 1 '" reset $end
     $var wire 1 (" clk $end
     $var wire 1 )" PCWrite $end
     $var wire 1 *" PCWriteCond $end
     $var wire 1 +" alu_bcond $end
     $var wire 32 ," next_pc [31:0] $end
     $var wire 32 -" current_pc [31:0] $end
    $upscope $end
    $scope module reg_file $end
     $var wire 1 ." reset $end
     $var wire 1 /" clk $end
     $var wire 5 0" rs1 [4:0] $end
     $var wire 5 1" rs2 [4:0] $end
     $var wire 5 2" rd [4:0] $end
     $var wire 32 3" rd_din [31:0] $end
     $var wire 1 4" write_enable $end
     $var wire 1 5" ecall_reg_cond $end
     $var wire 32 6" rs1_dout [31:0] $end
     $var wire 32 7" rs2_dout [31:0] $end
     $var wire 32 8" print_reg[0] [31:0] $end
     $var wire 32 9" print_reg[1] [31:0] $end
     $var wire 32 :" print_reg[2] [31:0] $end
     $var wire 32 ;" print_reg[3] [31:0] $end
     $var wire 32 <" print_reg[4] [31:0] $end
     $var wire 32 =" print_reg[5] [31:0] $end
     $var wire 32 >" print_reg[6] [31:0] $end
     $var wire 32 ?" print_reg[7] [31:0] $end
     $var wire 32 @" print_reg[8] [31:0] $end
     $var wire 32 A" print_reg[9] [31:0] $end
     $var wire 32 B" print_reg[10] [31:0] $end
     $var wire 32 C" print_reg[11] [31:0] $end
     $var wire 32 D" print_reg[12] [31:0] $end
     $var wire 32 E" print_reg[13] [31:0] $end
     $var wire 32 F" print_reg[14] [31:0] $end
     $var wire 32 G" print_reg[15] [31:0] $end
     $var wire 32 H" print_reg[16] [31:0] $end
     $var wire 32 I" print_reg[17] [31:0] $end
     $var wire 32 J" print_reg[18] [31:0] $end
     $var wire 32 K" print_reg[19] [31:0] $end
     $var wire 32 L" print_reg[20] [31:0] $end
     $var wire 32 M" print_reg[21] [31:0] $end
     $var wire 32 N" print_reg[22] [31:0] $end
     $var wire 32 O" print_reg[23] [31:0] $end
     $var wire 32 P" print_reg[24] [31:0] $end
     $var wire 32 Q" print_reg[25] [31:0] $end
     $var wire 32 R" print_reg[26] [31:0] $end
     $var wire 32 S" print_reg[27] [31:0] $end
     $var wire 32 T" print_reg[28] [31:0] $end
     $var wire 32 U" print_reg[29] [31:0] $end
     $var wire 32 V" print_reg[30] [31:0] $end
     $var wire 32 W" print_reg[31] [31:0] $end
     $var wire 32 X" i [31:0] $end
     $var wire 32 Y" rf[0] [31:0] $end
     $var wire 32 Z" rf[1] [31:0] $end
     $var wire 32 [" rf[2] [31:0] $end
     $var wire 32 \" rf[3] [31:0] $end
     $var wire 32 ]" rf[4] [31:0] $end
     $var wire 32 ^" rf[5] [31:0] $end
     $var wire 32 _" rf[6] [31:0] $end
     $var wire 32 `" rf[7] [31:0] $end
     $var wire 32 a" rf[8] [31:0] $end
     $var wire 32 b" rf[9] [31:0] $end
     $var wire 32 c" rf[10] [31:0] $end
     $var wire 32 d" rf[11] [31:0] $end
     $var wire 32 e" rf[12] [31:0] $end
     $var wire 32 f" rf[13] [31:0] $end
     $var wire 32 g" rf[14] [31:0] $end
     $var wire 32 h" rf[15] [31:0] $end
     $var wire 32 i" rf[16] [31:0] $end
     $var wire 32 j" rf[17] [31:0] $end
     $var wire 32 k" rf[18] [31:0] $end
     $var wire 32 l" rf[19] [31:0] $end
     $var wire 32 m" rf[20] [31:0] $end
     $var wire 32 n" rf[21] [31:0] $end
     $var wire 32 o" rf[22] [31:0] $end
     $var wire 32 p" rf[23] [31:0] $end
     $var wire 32 q" rf[24] [31:0] $end
     $var wire 32 r" rf[25] [31:0] $end
     $var wire 32 s" rf[26] [31:0] $end
     $var wire 32 t" rf[27] [31:0] $end
     $var wire 32 u" rf[28] [31:0] $end
     $var wire 32 v" rf[29] [31:0] $end
     $var wire 32 w" rf[30] [31:0] $end
     $var wire 32 x" rf[31] [31:0] $end
    $upscope $end
   $upscope $end
  $upscope $end
 $upscope $end
$enddefinitions $end


#0
0#
0$
0%
b11101011101001100001011001010100 &
b10001111110101100101101100110101 '
b01101010011100010001100110100111 (
b01110001011001011000110011000100 )
b11111101111001110010011001111110 *
b11011101010001010001000001000111 +
b11100111000100110100001111000110 ,
b00110000101001011100000111111101 -
b01000111001001000000110111010001 .
b00100100100000100011001011101111 /
b11100001011011001101110111010010 0
b11101011000101001101001000100101 1
b00110000001111011110001001101110 2
b10010000100011110111011010011101 3
b00111000010000011101101001011100 4
b01011110111101001101100101110011 5
b11101100010111010101100101101111 6
b00110000000011010101000011110111 7
b10110011110011101111111111010001 8
b01011111001101100000011101100011 9
b10101100010000010000000000111000 :
b10000001011010010100110001101011 ;
b10101011010111001010010101111010 <
b11100101101111101101000110010000 =
b00101101100010100011110011000111 >
b11110110110111010100001111110010 ?
b01010010000111101110101111101001 @
b01110000001000100001011111101110 A
b01010011111111111000101001010000 B
b11100111101001000110001010011000 C
b10101000100011100010001011011101 D
b10111110100010000010001011101111 E
0F
0G
0H
b11101011101001100001011001010100 I
b10001111110101100101101100110101 J
b01101010011100010001100110100111 K
b01110001011001011000110011000100 L
b11111101111001110010011001111110 M
b11011101010001010001000001000111 N
b11100111000100110100001111000110 O
b00110000101001011100000111111101 P
b01000111001001000000110111010001 Q
b00100100100000100011001011101111 R
b11100001011011001101110111010010 S
b11101011000101001101001000100101 T
b00110000001111011110001001101110 U
b10010000100011110111011010011101 V
b00111000010000011101101001011100 W
b01011110111101001101100101110011 X
b11101100010111010101100101101111 Y
b00110000000011010101000011110111 Z
b10110011110011101111111111010001 [
b01011111001101100000011101100011 \
b10101100010000010000000000111000 ]
b10000001011010010100110001101011 ^
b10101011010111001010010101111010 _
b11100101101111101101000110010000 `
b00101101100010100011110011000111 a
b11110110110111010100001111110010 b
b01010010000111101110101111101001 c
b01110000001000100001011111101110 d
b01010011111111111000101001010000 e
b11100111101001000110001010011000 f
b10101000100011100010001011011101 g
b10111110100010000010001011101111 h
0i
0j
0k
b11101011101001100001011001010100 l
b10001111110101100101101100110101 m
b01101010011100010001100110100111 n
b01110001011001011000110011000100 o
b11111101111001110010011001111110 p
b11011101010001010001000001000111 q
b11100111000100110100001111000110 r
b00110000101001011100000111111101 s
b01000111001001000000110111010001 t
b00100100100000100011001011101111 u
b11100001011011001101110111010010 v
b11101011000101001101001000100101 w
b00110000001111011110001001101110 x
b10010000100011110111011010011101 y
b00111000010000011101101001011100 z
b01011110111101001101100101110011 {
b11101100010111010101100101101111 |
b00110000000011010101000011110111 }
b10110011110011101111111111010001 ~
b01011111001101100000011101100011 !!
b10101100010000010000000000111000 "!
b10000001011010010100110001101011 #!
b10101011010111001010010101111010 $!
b11100101101111101101000110010000 %!
b00101101100010100011110011000111 &!
b11110110110111010100001111110010 '!
b01010010000111101110101111101001 (!
b01110000001000100001011111101110 )!
b01010011111111111000101001010000 *!
b11100111101001000110001010011000 +!
b10101000100011100010001011011101 ,!
b10111110100010000010001011101111 -!
0.!
0/!
00!
01!
02!
03!
04!
05!
b00 6!
b10 7!
18!
09!
b11100101111101101001110000100001 :!
b00000000000000000000000000000000 ;!
b00110000000011010101000011110111 <!
b10111110100010000010001011101111 =!
b00000000000000000000000000000000 >!
b00011001001111010110101110111001 ?!
b01001100001111001000011111010110 @!
b00011001001111010110101110111001 A!
b01001100001111001000011111010110 B!
b00000000000000000000000000000000 C!
b0000 D!
b01001100001111001000011111010110 E!
0F!
0G!
0H!
b01010101111110001101101110111011 I!
b01101100101010011010001001000100 J!
b01001100001111001000011111010110 K!
b10100011011110000101001000100011 L!
b11100101111101101001110000100001 M!
b0000 N!
b01001100001111001000011111010110 O!
b00000000000000000000000000000000 P!
b01001100001111001000011111010110 Q!
0R!
b1101 S!
b0111011 T!
b00 U!
b0000 V!
0W!
0X!
b0111011 Y!
0Z!
0[!
0\!
0]!
0^!
0_!
0`!
0a!
b00 b!
b10 c!
1d!
0e!
0f!
b0101 g!
b1000 h!
b0111011 i!
b0101 j!
b1000 k!
b0101 l!
0m!
0n!
0o!
0p!
0q!
0r!
0s!
0t!
b00 u!
b10 v!
1w!
0x!
b01010101111110001101101110111011 y!
b00000000000000000000000000000000 z!
b0111011 {!
0|!
0}!
b00011001001111010110101110111001 ~!
b10100011011110000101001000100011 !"
0""
0#"
b00000000000000000000000000000000 $"
b10001001110111101111101110110100 %"
b00000110010011110101101011101110 &"
0'"
0("
0)"
0*"
0+"
b01001100001111001000011111010110 ,"
b00011001001111010110101110111001 -"
0."
0/"
b10001 0"
b11111 1"
b10111 2"
b11100101111101101001110000100001 3"
04"
05"
b00110000000011010101000011110111 6"
b10111110100010000010001011101111 7"
b11101011101001100001011001010100 8"
b10001111110101100101101100110101 9"
b01101010011100010001100110100111 :"
b01110001011001011000110011000100 ;"
b11111101111001110010011001111110 <"
b11011101010001010001000001000111 ="
b11100111000100110100001111000110 >"
b00110000101001011100000111111101 ?"
b01000111001001000000110111010001 @"
b00100100100000100011001011101111 A"
b11100001011011001101110111010010 B"
b11101011000101001101001000100101 C"
b00110000001111011110001001101110 D"
b10010000100011110111011010011101 E"
b00111000010000011101101001011100 F"
b01011110111101001101100101110011 G"
b11101100010111010101100101101111 H"
b00110000000011010101000011110111 I"
b10110011110011101111111111010001 J"
b01011111001101100000011101100011 K"
b10101100010000010000000000111000 L"
b10000001011010010100110001101011 M"
b10101011010111001010010101111010 N"
b11100101101111101101000110010000 O"
b00101101100010100011110011000111 P"
b11110110110111010100001111110010 Q"
b01010010000111101110101111101001 R"
b01110000001000100001011111101110 S"
b01010011111111111000101001010000 T"
b11100111101001000110001010011000 U"
b10101000100011100010001011011101 V"
b10111110100010000010001011101111 W"
b10011001101001001111000100110000 X"
b11101011101001100001011001010100 Y"
b10001111110101100101101100110101 Z"
b01101010011100010001100110100111 ["
b01110001011001011000110011000100 \"
b11111101111001110010011001111110 ]"
b11011101010001010001000001000111 ^"
b11100111000100110100001111000110 _"
b00110000101001011100000111111101 `"
b01000111001001000000110111010001 a"
b00100100100000100011001011101111 b"
b11100001011011001101110111010010 c"
b11101011000101001101001000100101 d"
b00110000001111011110001001101110 e"
b10010000100011110111011010011101 f"
b00111000010000011101101001011100 g"
b01011110111101001101100101110011 h"
b11101100010111010101100101101111 i"
b00110000000011010101000011110111 j"
b10110011110011101111111111010001 k"
b01011111001101100000011101100011 l"
b10101100010000010000000000111000 m"
b10000001011010010100110001101011 n"
b10101011010111001010010101111010 o"
b11100101101111101101000110010000 p"
b00101101100010100011110011000111 q"
b11110110110111010100001111110010 r"
b01010010000111101110101111101001 s"
b01110000001000100001011111101110 t"
b01010011111111111000101001010000 u"
b11100111101001000110001010011000 v"
b10101000100011100010001011011101 w"
b10111110100010000010001011101111 x"
b00000000000000000100000000000000 y"
#1
1#
1F
1i
1W!
1|!
1'"
1."
#2
1$
b00000000000000000000000000000000 &
b00000000000000000000000000000000 '
b00000000000000000010111111111100 (
b00000000000000000000000000000000 )
b00000000000000000000000000000000 *
b00000000000000000000000000000000 +
b00000000000000000000000000000000 ,
b00000000000000000000000000000000 -
b00000000000000000000000000000000 .
b00000000000000000000000000000000 /
b00000000000000000000000000000000 0
b00000000000000000000000000000000 1
b00000000000000000000000000000000 2
b00000000000000000000000000000000 3
b00000000000000000000000000000000 4
b00000000000000000000000000000000 5
b00000000000000000000000000000000 6
b00000000000000000000000000000000 7
b00000000000000000000000000000000 8
b00000000000000000000000000000000 9
b00000000000000000000000000000000 :
b00000000000000000000000000000000 ;
b00000000000000000000000000000000 <
b00000000000000000000000000000000 =
b00000000000000000000000000000000 >
b00000000000000000000000000000000 ?
b00000000000000000000000000000000 @
b00000000000000000000000000000000 A
b00000000000000000000000000000000 B
b00000000000000000000000000000000 C
b00000000000000000000000000000000 D
b00000000000000000000000000000000 E
1G
b00000000000000000000000000000000 I
b00000000000000000000000000000000 J
b00000000000000000010111111111100 K
b00000000000000000000000000000000 L
b00000000000000000000000000000000 M
b00000000000000000000000000000000 N
b00000000000000000000000000000000 O
b00000000000000000000000000000000 P
b00000000000000000000000000000000 Q
b00000000000000000000000000000000 R
b00000000000000000000000000000000 S
b00000000000000000000000000000000 T
b00000000000000000000000000000000 U
b00000000000000000000000000000000 V
b00000000000000000000000000000000 W
b00000000000000000000000000000000 X
b00000000000000000000000000000000 Y
b00000000000000000000000000000000 Z
b00000000000000000000000000000000 [
b00000000000000000000000000000000 \
b00000000000000000000000000000000 ]
b00000000000000000000000000000000 ^
b00000000000000000000000000000000 _
b00000000000000000000000000000000 `
b00000000000000000000000000000000 a
b00000000000000000000000000000000 b
b00000000000000000000000000000000 c
b00000000000000000000000000000000 d
b00000000000000000000000000000000 e
b00000000000000000000000000000000 f
b00000000000000000000000000000000 g
b00000000000000000000000000000000 h
1j
b00000000000000000000000000000000 l
b00000000000000000000000000000000 m
b00000000000000000010111111111100 n
b00000000000000000000000000000000 o
b00000000000000000000000000000000 p
b00000000000000000000000000000000 q
b00000000000000000000000000000000 r
b00000000000000000000000000000000 s
b00000000000000000000000000000000 t
b00000000000000000000000000000000 u
b00000000000000000000000000000000 v
b00000000000000000000000000000000 w
b00000000000000000000000000000000 x
b00000000000000000000000000000000 y
b00000000000000000000000000000000 z
b00000000000000000000000000000000 {
b00000000000000000000000000000000 |
b00000000000000000000000000000000 }
b00000000000000000000000000000000 ~
b00000000000000000000000000000000 !!
b00000000000000000000000000000000 "!
b00000000000000000000000000000000 #!
b00000000000000000000000000000000 $!
b00000000000000000000000000000000 %!
b00000000000000000000000000000000 &!
b00000000000000000000000000000000 '!
b00000000000000000000000000000000 (!
b00000000000000000000000000000000 )!
b00000000000000000000000000000000 *!
b00000000000000000000000000000000 +!
b00000000000000000000000000000000 ,!
b00000000000000000000000000000000 -!
11!
14!
b00 7!
08!
b01001100001111001000011111010110 :!
b11111110000000010000000100010011 ;!
b00000000000000000000000000000000 <!
b00000000000000000000000000000000 =!
b00000000000000000000000000000000 ?!
b10111110100010000010001011101111 @!
b00000000000000000000000000000000 A!
b00000000000000000000000000000000 B!
b10111110100010000010001011101111 C!
b10111110100010000010001011101111 E!
b00000000000000000000000000000000 J!
b00110000000011010101000011110111 K!
b10111110100010000010001011101111 L!
b01001100001111001000011111010110 M!
b00000000000000000000000000000000 O!
b10111110100010000010001011101111 P!
b10111110100010000010001011101111 Q!
1X!
1]!
1`!
b00 c!
0d!
b0000 g!
b0001 h!
b0000 j!
b0001 k!
b0000 l!
1p!
1s!
b00 v!
0w!
1}!
b00000000000000000000000000000000 ~!
b10111110100010000010001011101111 !"
1""
b11111110000000010000000100010011 $"
b00000000000000000100000000000000 %"
b00000000000000000000000000000000 &"
1("
b10111110100010000010001011101111 ,"
b00000000000000000000000000000000 -"
1/"
b01001100001111001000011111010110 3"
b00000000000000000000000000000000 6"
b00000000000000000000000000000000 7"
b00000000000000000000000000000000 8"
b00000000000000000000000000000000 9"
b00000000000000000010111111111100 :"
b00000000000000000000000000000000 ;"
b00000000000000000000000000000000 <"
b00000000000000000000000000000000 ="
b00000000000000000000000000000000 >"
b00000000000000000000000000000000 ?"
b00000000000000000000000000000000 @"
b00000000000000000000000000000000 A"
b00000000000000000000000000000000 B"
b00000000000000000000000000000000 C"
b00000000000000000000000000000000 D"
b00000000000000000000000000000000 E"
b00000000000000000000000000000000 F"
b00000000000000000000000000000000 G"
b00000000000000000000000000000000 H"
b00000000000000000000000000000000 I"
b00000000000000000000000000000000 J"
b00000000000000000000000000000000 K"
b00000000000000000000000000000000 L"
b00000000000000000000000000000000 M"
b00000000000000000000000000000000 N"
b00000000000000000000000000000000 O"
b00000000000000000000000000000000 P"
b00000000000000000000000000000000 Q"
b00000000000000000000000000000000 R"
b00000000000000000000000000000000 S"
b00000000000000000000000000000000 T"
b00000000000000000000000000000000 U"
b00000000000000000000000000000000 V"
b00000000000000000000000000000000 W"
b00000000000000000000000000100000 X"
b00000000000000000000000000000000 Y"
b00000000000000000000000000000000 Z"
b00000000000000000010111111111100 ["
b00000000000000000000000000000000 \"
b00000000000000000000000000000000 ]"
b00000000000000000000000000000000 ^"
b00000000000000000000000000000000 _"
b00000000000000000000000000000000 `"
b00000000000000000000000000000000 a"
b00000000000000000000000000000000 b"
b00000000000000000000000000000000 c"
b00000000000000000000000000000000 d"
b00000000000000000000000000000000 e"
b00000000000000000000000000000000 f"
b00000000000000000000000000000000 g"
b00000000000000000000000000000000 h"
b00000000000000000000000000000000 i"
b00000000000000000000000000000000 j"
b00000000000000000000000000000000 k"
b00000000000000000000000000000000 l"
b00000000000000000000000000000000 m"
b00000000000000000000000000000000 n"
b00000000000000000000000000000000 o"
b00000000000000000000000000000000 p"
b00000000000000000000000000000000 q"
b00000000000000000000000000000000 r"
b00000000000000000000000000000000 s"
b00000000000000000000000000000000 t"
b00000000000000000000000000000000 u"
b00000000000000000000000000000000 v"
b00000000000000000000000000000000 w"
b00000000000000000000000000000000 x"
#3
0#
0F
0i
0W!
0|!
0'"
0."
#4
0$
0G
0j
0X!
0}!
0("
0/"
#5
1$
1G
1j
01!
04!
b01 7!
b10111110100010000010001011101111 :!
b00000000000000000000000000000000 ;!
b00000000000000000010111111111100 <!
b11111111111111111111111111100000 >!
b00000000000000000000000000000100 @!
b00000000000000000000000000000100 C!
b00000000000000000000000000000100 E!
b11111110000000010000000100010011 I!
b11111110000000010000000100010011 J!
b00000000000000000000000000000000 K!
b00000000000000000000000000000000 L!
b10111110100010000010001011101111 M!
b00000000000000000000000000000100 P!
b00000000000000000000000000000100 Q!
b1000 S!
b0010011 T!
1X!
b0010011 Y!
0]!
0`!
b01 c!
b0001 g!
b0011 h!
b0010011 i!
b0001 j!
b0011 k!
b0001 l!
0p!
0s!
b01 v!
b11111110000000010000000100010011 y!
b11111111111111111111111111100000 z!
b0010011 {!
1}!
b00000000000000000000000000000000 !"
0""
b00000000000000000000000000000000 $"
1("
b00000000000000000000000000000100 ,"
1/"
b00010 0"
b00000 1"
b00010 2"
b10111110100010000010001011101111 3"
b00000000000000000010111111111100 6"
#6
0$
0G
0j
0X!
0}!
0("
0/"
#7
1$
1G
1j
b10 6!
b10 7!
18!
b00000000000000000000000000000100 :!
b00000000000000000010111111011100 @!
b00000000000000000010111111111100 B!
b11111111111111111111111111100000 C!
b00000000000000000010111111011100 E!
b00000000000000000000000000000000 J!
b00000000000000000010111111111100 K!
b00000000000000000000000000000100 M!
b00000000000000000010111111111100 O!
b11111111111111111111111111100000 P!
b00000000000000000010111111011100 Q!
b10 U!
1X!
b10 b!
b10 c!
1d!
b0011 g!
b0100 h!
b0011 j!
b0100 k!
b0011 l!
b10 u!
b10 v!
1w!
1}!
1("
b00000000000000000010111111011100 ,"
1/"
b00000000000000000000000000000100 3"
#8
0$
0G
0j
0X!
0}!
0("
0/"
#9
1$
1G
1j
1/!
b00 6!
b01 7!
08!
19!
b00000000000000000010111111011100 :!
b00000000000000000000000000000100 @!
b00000000000000000000000000000000 B!
b00000000000000000000000000000100 C!
b00000000000000000000000000000100 E!
b00000000000000000010111111011100 M!
b00000000000000000000000000000000 O!
b00000000000000000000000000000100 P!
b00000000000000000000000000000100 Q!
b00 U!
1X!
1[!
b00 b!
b01 c!
0d!
1e!
b0100 g!
b0000 h!
b0100 j!
b0000 k!
b0100 l!
1n!
b00 u!
b01 v!
0w!
1x!
1}!
1("
1)"
b00000000000000000000000000000100 ,"
1/"
b00000000000000000010111111011100 3"
14"
#10
0$
0G
0j
0X!
0}!
0("
0/"
#11
1$
b00000000000000000010111111011100 (
1G
b00000000000000000010111111011100 K
1j
b00000000000000000010111111011100 n
0/!
11!
14!
b00 7!
09!
b00000000000000000000000000000100 :!
b00000000000100010010111000100011 ;!
b00000000000000000010111111011100 <!
b00000000000000000000000000000100 ?!
b00000000000000000000000000000100 A!
b00000000000000000000000000000100 B!
b00000000000000000000000000000000 C!
b00000000000000000000000000000100 M!
b00000000000000000000000000000100 O!
b00000000000000000000000000000000 P!
1X!
0[!
1]!
1`!
b00 c!
0e!
b0000 g!
b0001 h!
b0000 j!
b0001 k!
b0000 l!
0n!
1p!
1s!
b00 v!
0x!
1}!
b00000000000000000000000000000100 ~!
1""
b00000000000100010010111000100011 $"
b00000000000000000000000000000001 &"
1("
0)"
b00000000000000000000000000000100 -"
1/"
b00000000000000000000000000000100 3"
04"
b00000000000000000010111111011100 6"
b00000000000000000010111111011100 :"
b00000000000000000010111111011100 ["
#12
0$
0G
0j
0X!
0}!
0("
0/"
