Lab3/waveform.vcd
$version Generated by VerilatedVcd $end
$timescale 1ps $end
 $scope module TOP $end
  $var wire 1 # reset $end
  $var wire 1 $ clk $end
  $var wire 1 % is_halted $end
  $var wire 32 & print_reg[0] [31:0] $end
  $var wire 32 ' print_reg[1] [31:0] $end
  $var wire 32 ( print_reg[2] [31:0] $end
  $var wire 32 ) print_reg[3] [31:0] $end
  $var wire 32 * print_reg[4] [31:0] $end
  $var wire 32 + print_reg[5] [31:0] $end
  $var wire 32 , print_reg[6] [31:0] $end
  $var wire 32 - print_reg[7] [31:0] $end
  $var wire 32 . print_reg[8] [31:0] $end
  $var wire 32 / print_reg[9] [31:0] $end
  $var wire 32 0 print_reg[10] [31:0] $end
  $var wire 32 1 print_reg[11] [31:0] $end
  $var wire 32 2 print_reg[12] [31:0] $end
  $var wire 32 3 print_reg[13] [31:0] $end
  $var wire 32 4 print_reg[14] [31:0] $end
  $var wire 32 5 print_reg[15] [31:0] $end
  $var wire 32 6 print_reg[16] [31:0] $end
  $var wire 32 7 print_reg[17] [31:0] $end
  $var wire 32 8 print_reg[18] [31:0] $end
  $var wire 32 9 print_reg[19] [31:0] $end
  $var wire 32 : print_reg[20] [31:0] $end
  $var wire 32 ; print_reg[21] [31:0] $end
  $var wire 32 < print_reg[22] [31:0] $end
  $var wire 32 = print_reg[23] [31:0] $end
  $var wire 32 > print_reg[24] [31:0] $end
  $var wire 32 ? print_reg[25] [31:0] $end
  $var wire 32 @ print_reg[26] [31:0] $end
  $var wire 32 A print_reg[27] [31:0] $end
  $var wire 32 B print_reg[28] [31:0] $end
  $var wire 32 C print_reg[29] [31:0] $end
  $var wire 32 D print_reg[30] [31:0] $end
  $var wire 32 E print_reg[31] [31:0] $end
  $scope module top $end
   $var wire 1 F reset $end
   $var wire 1 G clk $end
   $var wire 1 H is_halted $end
   $var wire 32 I print_reg[0] [31:0] $end
   $var wire 32 J print_reg[1] [31:0] $end
   $var wire 32 K print_reg[2] [31:0] $end
   $var wire 32 L print_reg[3] [31:0] $end
   $var wire 32 M print_reg[4] [31:0] $end
   $var wire 32 N print_reg[5] [31:0] $end
   $var wire 32 O print_reg[6] [31:0] $end
   $var wire 32 P print_reg[7] [31:0] $end
   $var wire 32 Q print_reg[8] [31:0] $end
   $var wire 32 R print_reg[9] [31:0] $end
   $var wire 32 S print_reg[10] [31:0] $end
   $var wire 32 T print_reg[11] [31:0] $end
   $var wire 32 U print_reg[12] [31:0] $end
   $var wire 32 V print_reg[13] [31:0] $end
   $var wire 32 W print_reg[14] [31:0] $end
   $var wire 32 X print_reg[15] [31:0] $end
   $var wire 32 Y print_reg[16] [31:0] $end
   $var wire 32 Z print_reg[17] [31:0] $end
   $var wire 32 [ print_reg[18] [31:0] $end
   $var wire 32 \ print_reg[19] [31:0] $end
   $var wire 32 ] print_reg[20] [31:0] $end
   $var wire 32 ^ print_reg[21] [31:0] $end
   $var wire 32 _ print_reg[22] [31:0] $end
   $var wire 32 ` print_reg[23] [31:0] $end
   $var wire 32 a print_reg[24] [31:0] $end
   $var wire 32 b print_reg[25] [31:0] $end
   $var wire 32 c print_reg[26] [31:0] $end
   $var wire 32 d print_reg[27] [31:0] $end
   $var wire 32 e print_reg[28] [31:0] $end
   $var wire 32 f print_reg[29] [31:0] $end
   $var wire 32 g print_reg[30] [31:0] $end
   $var wire 32 h print_reg[31] [31:0] $end
   $scope module cpu $end
    $var wire 1 i reset $end
    $var wire 1 j clk $end
    $var wire 1 k is_halted $end
    $var wire 32 l print_reg[0] [31:0] $end
    $var wire 32 m print_reg[1] [31:0] $end
    $var wire 32 n print_reg[2] [31:0] $end
    $var wire 32 o print_reg[3] [31:0] $end
    $var wire 32 p print_reg[4] [31:0] $end
    $var wire 32 q print_reg[5] [31:0] $end
    $var wire 32 r print_reg[6] [31:0] $end
    $var wire 32 s print_reg[7] [31:0] $end
    $var wire 32 t print_reg[8] [31:0] $end
    $var wire 32 u print_reg[9] [31:0] $end
    $var wire 32 v print_reg[10] [31:0] $end
    $var wire 32 w print_reg[11] [31:0] $end
    $var wire 32 x print_reg[12] [31:0] $end
    $var wire 32 y print_reg[13] [31:0] $end
    $var wire 32 z print_reg[14] [31:0] $end
    $var wire 32 { print_reg[15] [31:0] $end
    $var wire 32 | print_reg[16] [31:0] $end
    $var wire 32 } print_reg[17] [31:0] $end
    $var wire 32 ~ print_reg[18] [31:0] $end
    $var wire 32 !! print_reg[19] [31:0] $end
    $var wire 32 "! print_reg[20] [31:0] $end
    $var wire 32 #! print_reg[21] [31:0] $end
    $var wire 32 $! print_reg[22] [31:0] $end
    $var wire 32 %! print_reg[23] [31:0] $end
    $var wire 32 &! print_reg[24] [31:0] $end
    $var wire 32 '! print_reg[25] [31:0] $end
    $var wire 32 (! print_reg[26] [31:0] $end
    $var wire 32 )! print_reg[27] [31:0] $end
    $var wire 32 *! print_reg[28] [31:0] $end
    $var wire 32 +! print_reg[29] [31:0] $end
    $var wire 32 ,! print_reg[30] [31:0] $end
    $var wire 32 -! print_reg[31] [31:0] $end
    $var wire 1 .! PCWriteCond $end
    $var wire 1 /! PCWrite $end
    $var wire 1 0! IorD $end
    $var wire 1 1! MemRead $end
    $var wire 1 2! MemWrite $end
    $var wire 1 3! MemtoReg $end
    $var wire 1 4! IRWrite $end
    $var wire 1 5! PCSource $end
    $var wire 2 6! ALUOp [1:0] $end
    $var wire 2 7! ALUSrcB [1:0] $end
    $var wire 1 8! ALUSrcA $end
    $var wire 1 9! RegWrite $end
    $var wire 32 :! WriteData [31:0] $end
    $var wire 32 ;! MemData [31:0] $end
    $var wire 32 <! regA_value [31:0] $end
    $var wire 32 =! regB_value [31:0] $end
    $var wire 32 >! immediate [31:0] $end
    $var wire 32 ?! current_pc [31:0] $end
    $var wire 32 @! next_pc [31:0] $end
    $var wire 32 A! addr [31:0] $end
    $var wire 32 B! alu_in_1 [31:0] $end
    $var wire 32 C! alu_in_2 [31:0] $end
    $var wire 5 D! ALUControl [4:0] $end
    $var wire 32 E! alu_result [31:0] $end
    $var wire 1 F! alu_bcond $end
    $var wire 1 G! is_ecall $end
    $var wire 1 H! ecall_reg_cond $end
    $var wire 32 I! IR [31:0] $end
    $var wire 32 J! MDR [31:0] $end
    $var wire 32 K! A [31:0] $end
    $var wire 32 L! B [31:0] $end
    $var wire 32 M! ALUOut [31:0] $end
    $scope module alu $end
     $var wire 5 N! ALUControl [4:0] $end
     $var wire 32 O! alu_in_1 [31:0] $end
     $var wire 32 P! alu_in_2 [31:0] $end
     $var wire 32 Q! alu_result [31:0] $end
     $var wire 1 R! alu_bcond $end
    $upscope $end
    $scope module alu_ctrl_unit $end
     $var wire 4 S! functs [3:0] $end
     $var wire 2 T! ALUOp [1:0] $end
     $var wire 5 U! ALUControl [4:0] $end
    $upscope $end
    $scope module ctrl_unit $end
     $var wire 1 V! reset $end
     $var wire 1 W! clk $end
     $var wire 7 X! opcode [6:0] $end
     $var wire 1 Y! PCWriteCond $end
     $var wire 1 Z! PCWrite $end
     $var wire 1 [! IorD $end
     $var wire 1 \! MemRead $end
     $var wire 1 ]! MemWrite $end
     $var wire 1 ^! MemtoReg $end
     $var wire 1 _! IRWrite $end
     $var wire 1 `! PCSource $end
     $var wire 2 a! ALUOp [1:0] $end
     $var wire 2 b! ALUSrcB [1:0] $end
     $var wire 1 c! ALUSrcA $end
     $var wire 1 d! RegWrite $end
     $var wire 1 e! is_ecall $end
     $var wire 4 f! current_state [3:0] $end
     $var wire 4 g! next_state [3:0] $end
     $scope module state_machine $end
      $var wire 7 h! opcode [6:0] $end
      $var wire 4 i! current_state [3:0] $end
      $var wire 4 j! next_state [3:0] $end
     $upscope $end
     $scope module state_to_control $end
      $var wire 4 k! current_state [3:0] $end
      $var wire 1 l! PCWriteCond $end
      $var wire 1 m! PCWrite $end
      $var wire 1 n! IorD $end
      $var wire 1 o! MemRead $end
      $var wire 1 p! MemWrite $end
      $var wire 1 q! MemtoReg $end
      $var wire 1 r! IRWrite $end
      $var wire 1 s! PCSource $end
      $var wire 2 t! ALUOp [1:0] $end
      $var wire 2 u! ALUSrcB [1:0] $end
      $var wire 1 v! ALUSrcA $end
      $var wire 1 w! RegWrite $end
     $upscope $end
    $upscope $end
    $scope module imm_gen $end
     $var wire 32 x! IR [31:0] $end
     $var wire 32 y! imm_gen_out [31:0] $end
     $var wire 7 z! opcode [6:0] $end
    $upscope $end
    $scope module memory $end
     $var wire 32 x" MEM_DEPTH [31:0] $end
     $var wire 1 {! reset $end
     $var wire 1 |! clk $end
     $var wire 32 }! addr [31:0] $end
     $var wire 32 ~! din [31:0] $end
     $var wire 1 !" mem_read $end
     $var wire 1 "" mem_write $end
     $var wire 32 #" dout [31:0] $end
     $var wire 32 $" i [31:0] $end
     $var wire 32 %" mem_addr [31:0] $end
    $upscope $end
    $scope module pc $end
     $var wire 1 &" reset $end
     $var wire 1 '" clk $end
     $var wire 1 (" PCWrite $end
     $var wire 1 )" PCWriteCond $end
     $var wire 1 *" alu_bcond $end
     $var wire 32 +" next_pc [31:0] $end
     $var wire 32 ," current_pc [31:0] $end
    $upscope $end
    $scope module reg_file $end
     $var wire 1 -" reset $end
     $var wire 1 ." clk $end
     $var wire 5 /" rs1 [4:0] $end
     $var wire 5 0" rs2 [4:0] $end
     $var wire 5 1" rd [4:0] $end
     $var wire 32 2" rd_din [31:0] $end
     $var wire 1 3" write_enable $end
     $var wire 1 4" ecall_reg_cond $end
     $var wire 32 5" rs1_dout [31:0] $end
     $var wire 32 6" rs2_dout [31:0] $end
     $var wire 32 7" print_reg[0] [31:0] $end
     $var wire 32 8" print_reg[1] [31:0] $end
     $var wire 32 9" print_reg[2] [31:0] $end
     $var wire 32 :" print_reg[3] [31:0] $end
     $var wire 32 ;" print_reg[4] [31:0] $end
     $var wire 32 <" print_reg[5] [31:0] $end
     $var wire 32 =" print_reg[6] [31:0] $end
     $var wire 32 >" print_reg[7] [31:0] $end
     $var wire 32 ?" print_reg[8] [31:0] $end
     $var wire 32 @" print_reg[9] [31:0] $end
     $var wire 32 A" print_reg[10] [31:0] $end
     $var wire 32 B" print_reg[11] [31:0] $end
     $var wire 32 C" print_reg[12] [31:0] $end
     $var wire 32 D" print_reg[13] [31:0] $end
     $var wire 32 E" print_reg[14] [31:0] $end
     $var wire 32 F" print_reg[15] [31:0] $end
     $var wire 32 G" print_reg[16] [31:0] $end
     $var wire 32 H" print_reg[17] [31:0] $end
     $var wire 32 I" print_reg[18] [31:0] $end
     $var wire 32 J" print_reg[19] [31:0] $end
     $var wire 32 K" print_reg[20] [31:0] $end
     $var wire 32 L" print_reg[21] [31:0] $end
     $var wire 32 M" print_reg[22] [31:0] $end
     $var wire 32 N" print_reg[23] [31:0] $end
     $var wire 32 O" print_reg[24] [31:0] $end
     $var wire 32 P" print_reg[25] [31:0] $end
     $var wire 32 Q" print_reg[26] [31:0] $end
     $var wire 32 R" print_reg[27] [31:0] $end
     $var wire 32 S" print_reg[28] [31:0] $end
     $var wire 32 T" print_reg[29] [31:0] $end
     $var wire 32 U" print_reg[30] [31:0] $end
     $var wire 32 V" print_reg[31] [31:0] $end
     $var wire 32 W" i [31:0] $end
     $var wire 32 X" rf[0] [31:0] $end
     $var wire 32 Y" rf[1] [31:0] $end
     $var wire 32 Z" rf[2] [31:0] $end
     $var wire 32 [" rf[3] [31:0] $end
     $var wire 32 \" rf[4] [31:0] $end
     $var wire 32 ]" rf[5] [31:0] $end
     $var wire 32 ^" rf[6] [31:0] $end
     $var wire 32 _" rf[7] [31:0] $end
     $var wire 32 `" rf[8] [31:0] $end
     $var wire 32 a" rf[9] [31:0] $end
     $var wire 32 b" rf[10] [31:0] $end
     $var wire 32 c" rf[11] [31:0] $end
     $var wire 32 d" rf[12] [31:0] $end
     $var wire 32 e" rf[13] [31:0] $end
     $var wire 32 f" rf[14] [31:0] $end
     $var wire 32 g" rf[15] [31:0] $end
     $var wire 32 h" rf[16] [31:0] $end
     $var wire 32 i" rf[17] [31:0] $end
     $var wire 32 j" rf[18] [31:0] $end
     $var wire 32 k" rf[19] [31:0] $end
     $var wire 32 l" rf[20] [31:0] $end
     $var wire 32 m" rf[21] [31:0] $end
     $var wire 32 n" rf[22] [31:0] $end
     $var wire 32 o" rf[23] [31:0] $end
     $var wire 32 p" rf[24] [31:0] $end
     $var wire 32 q" rf[25] [31:0] $end
     $var wire 32 r" rf[26] [31:0] $end
     $var wire 32 s" rf[27] [31:0] $end
     $var wire 32 t" rf[28] [31:0] $end
     $var wire 32 u" rf[29] [31:0] $end
     $var wire 32 v" rf[30] [31:0] $end
     $var wire 32 w" rf[31] [31:0] $end
    $upscope $end
   $upscope $end
  $upscope $end
 $upscope $end
$enddefinitions $end


#0
0#
0$
0%
b01010010010110100011001011011011 &
b11011110101101110011001111101001 '
b00010010000110010000010101001110 (
b11111100000001000111011000100100 )
b10000111011011110111011101000010 *
b10101110001001010010110000000111 +
b11011000000010100111010100000000 ,
b11010101110100110011000111010110 -
b00001011100111001110010100111111 .
b11000100001000000111110100111001 /
b11100010101011101101110011111001 0
b10111010100001101000010011010111 1
b11011111001101111101111101111010 2
b10010010011000000001101001110110 3
b10110101001110001111011001111100 4
b11110001010101010111000001000010 5
b00000011100111110011101010101110 6
b10011111000101111110010001110110 7
b01011011100001010111011000101011 8
b00110011100000010100000100100111 9
b00110100001111110111010111010010 :
b10010101101111010001111010100010 ;
b10100101010010100110001100000110 <
b11000000101110000000010100001001 =
b00110010000110101000101000001111 >
b01010010010011110101000111011100 ?
b10000010001100010101001011100100 @
b00010000100001100110010101011001 A
b01001011110100001101101101111001 B
b10111000010001100110101010101100 C
b00100010000011001001101010000000 D
b00111110001000110100010111110111 E
0F
0G
0H
b01010010010110100011001011011011 I
b11011110101101110011001111101001 J
b00010010000110010000010101001110 K
b11111100000001000111011000100100 L
b10000111011011110111011101000010 M
b10101110001001010010110000000111 N
b11011000000010100111010100000000 O
b11010101110100110011000111010110 P
b00001011100111001110010100111111 Q
b11000100001000000111110100111001 R
b11100010101011101101110011111001 S
b10111010100001101000010011010111 T
b11011111001101111101111101111010 U
b10010010011000000001101001110110 V
b10110101001110001111011001111100 W
b11110001010101010111000001000010 X
b00000011100111110011101010101110 Y
b10011111000101111110010001110110 Z
b01011011100001010111011000101011 [
b00110011100000010100000100100111 \
b00110100001111110111010111010010 ]
b10010101101111010001111010100010 ^
b10100101010010100110001100000110 _
b11000000101110000000010100001001 `
b00110010000110101000101000001111 a
b01010010010011110101000111011100 b
b10000010001100010101001011100100 c
b00010000100001100110010101011001 d
b01001011110100001101101101111001 e
b10111000010001100110101010101100 f
b00100010000011001001101010000000 g
b00111110001000110100010111110111 h
0i
0j
0k
b01010010010110100011001011011011 l
b11011110101101110011001111101001 m
b00010010000110010000010101001110 n
b11111100000001000111011000100100 o
b10000111011011110111011101000010 p
b10101110001001010010110000000111 q
b11011000000010100111010100000000 r
b11010101110100110011000111010110 s
b00001011100111001110010100111111 t
b11000100001000000111110100111001 u
b11100010101011101101110011111001 v
b10111010100001101000010011010111 w
b11011111001101111101111101111010 x
b10010010011000000001101001110110 y
b10110101001110001111011001111100 z
b11110001010101010111000001000010 {
b00000011100111110011101010101110 |
b10011111000101111110010001110110 }
b01011011100001010111011000101011 ~
b00110011100000010100000100100111 !!
b00110100001111110111010111010010 "!
b10010101101111010001111010100010 #!
b10100101010010100110001100000110 $!
b11000000101110000000010100001001 %!
b00110010000110101000101000001111 &!
b01010010010011110101000111011100 '!
b10000010001100010101001011100100 (!
b00010000100001100110010101011001 )!
b01001011110100001101101101111001 *!
b10111000010001100110101010101100 +!
b00100010000011001001101010000000 ,!
b00111110001000110100010111110111 -!
0.!
0/!
00!
01!
02!
03!
04!
05!
b10 6!
b10 7!
18!
09!
b01001101010001011111011001010011 :!
b00000000000000000000000000000000 ;!
b10110101001110001111011001111100 <!
b11011111001101111101111101111010 =!
b00000000000000000000000000000000 >!
b10010011011011111000110011111100 ?!
b01000001011101001110010100111010 @!
b10010011011011111000110011111100 A!
b01000001011101001110010100111010 B!
b00000000000000000000000000000000 C!
b01001 D!
b01000001011101001110010100111010 E!
0F!
0G!
0H!
b11011010110001110001101010110110 I!
b11101101110000011110001011010111 J!
b01000001011101001110010100111010 K!
b10101100000000110100101001100111 L!
b01001101010001011111011001010011 M!
b01001 N!
b01000001011101001110010100111010 O!
b00000000000000000000000000000000 P!
b01000001011101001110010100111010 Q!
0R!
b1001 S!
b10 T!
b01001 U!
0V!
0W!
b0110110 X!
0Y!
0Z!
0[!
0\!
0]!
0^!
0_!
0`!
b10 a!
b10 b!
1c!
0d!
0e!
b0011 f!
b0100 g!
b0110110 h!
b0011 i!
b0100 j!
b0011 k!
0l!
0m!
0n!
0o!
0p!
0q!
0r!
0s!
b10 t!
b10 u!
1v!
0w!
b11011010110001110001101010110110 x!
b00000000000000000000000000000000 y!
b0110110 z!
0{!
0|!
b10010011011011111000110011111100 }!
b10101100000000110100101001100111 ~!
0!"
0""
b00000000000000000000000000000000 #"
b11101101011001000111000010101011 $"
b00100100110110111110001100111111 %"
0&"
0'"
0("
0)"
0*"
b01000001011101001110010100111010 +"
b10010011011011111000110011111100 ,"
0-"
0."
b01110 /"
b01100 0"
b10101 1"
b01001101010001011111011001010011 2"
03"
04"
b10110101001110001111011001111100 5"
b11011111001101111101111101111010 6"
b01010010010110100011001011011011 7"
b11011110101101110011001111101001 8"
b00010010000110010000010101001110 9"
b11111100000001000111011000100100 :"
b10000111011011110111011101000010 ;"
b10101110001001010010110000000111 <"
b11011000000010100111010100000000 ="
b11010101110100110011000111010110 >"
b00001011100111001110010100111111 ?"
b11000100001000000111110100111001 @"
b11100010101011101101110011111001 A"
b10111010100001101000010011010111 B"
b11011111001101111101111101111010 C"
b10010010011000000001101001110110 D"
b10110101001110001111011001111100 E"
b11110001010101010111000001000010 F"
b00000011100111110011101010101110 G"
b10011111000101111110010001110110 H"
b01011011100001010111011000101011 I"
b00110011100000010100000100100111 J"
b00110100001111110111010111010010 K"
b10010101101111010001111010100010 L"
b10100101010010100110001100000110 M"
b11000000101110000000010100001001 N"
b00110010000110101000101000001111 O"
b01010010010011110101000111011100 P"
b10000010001100010101001011100100 Q"
b00010000100001100110010101011001 R"
b01001011110100001101101101111001 S"
b10111000010001100110101010101100 T"
b00100010000011001001101010000000 U"
b00111110001000110100010111110111 V"
b00110101000100000000101011001011 W"
b01010010010110100011001011011011 X"
b11011110101101110011001111101001 Y"
b00010010000110010000010101001110 Z"
b11111100000001000111011000100100 ["
b10000111011011110111011101000010 \"
b10101110001001010010110000000111 ]"
b11011000000010100111010100000000 ^"
b11010101110100110011000111010110 _"
b00001011100111001110010100111111 `"
b11000100001000000111110100111001 a"
b11100010101011101101110011111001 b"
b10111010100001101000010011010111 c"
b11011111001101111101111101111010 d"
b10010010011000000001101001110110 e"
b10110101001110001111011001111100 f"
b11110001010101010111000001000010 g"
b00000011100111110011101010101110 h"
b10011111000101111110010001110110 i"
b01011011100001010111011000101011 j"
b00110011100000010100000100100111 k"
b00110100001111110111010111010010 l"
b10010101101111010001111010100010 m"
b10100101010010100110001100000110 n"
b11000000101110000000010100001001 o"
b00110010000110101000101000001111 p"
b01010010010011110101000111011100 q"
b10000010001100010101001011100100 r"
b00010000100001100110010101011001 s"
b01001011110100001101101101111001 t"
b10111000010001100110101010101100 u"
b00100010000011001001101010000000 v"
b00111110001000110100010111110111 w"
b00000000000000000100000000000000 x"
#1
1#
1F
1i
1V!
1{!
1&"
1-"
#2
1$
b00000000000000000000000000000000 &
b00000000000000000000000000000000 '
b00000000000000000010111111111100 (
b00000000000000000000000000000000 )
b00000000000000000000000000000000 *
b00000000000000000000000000000000 +
b00000000000000000000000000000000 ,
b00000000000000000000000000000000 -
b00000000000000000000000000000000 .
b00000000000000000000000000000000 /
b00000000000000000000000000000000 0
b00000000000000000000000000000000 1
b00000000000000000000000000000000 2
b00000000000000000000000000000000 3
b00000000000000000000000000000000 4
b00000000000000000000000000000000 5
b00000000000000000000000000000000 6
b00000000000000000000000000000000 7
b00000000000000000000000000000000 8
b00000000000000000000000000000000 9
b00000000000000000000000000000000 :
b00000000000000000000000000000000 ;
b00000000000000000000000000000000 <
b00000000000000000000000000000000 =
b00000000000000000000000000000000 >
b00000000000000000000000000000000 ?
b00000000000000000000000000000000 @
b00000000000000000000000000000000 A
b00000000000000000000000000000000 B
b00000000000000000000000000000000 C
b00000000000000000000000000000000 D
b00000000000000000000000000000000 E
1G
b00000000000000000000000000000000 I
b00000000000000000000000000000000 J
b00000000000000000010111111111100 K
b00000000000000000000000000000000 L
b00000000000000000000000000000000 M
b00000000000000000000000000000000 N
b00000000000000000000000000000000 O
b00000000000000000000000000000000 P
b00000000000000000000000000000000 Q
b00000000000000000000000000000000 R
b00000000000000000000000000000000 S
b00000000000000000000000000000000 T
b00000000000000000000000000000000 U
b00000000000000000000000000000000 V
b00000000000000000000000000000000 W
b00000000000000000000000000000000 X
b00000000000000000000000000000000 Y
b00000000000000000000000000000000 Z
b00000000000000000000000000000000 [
b00000000000000000000000000000000 \
b00000000000000000000000000000000 ]
b00000000000000000000000000000000 ^
b00000000000000000000000000000000 _
b00000000000000000000000000000000 `
b00000000000000000000000000000000 a
b00000000000000000000000000000000 b
b00000000000000000000000000000000 c
b00000000000000000000000000000000 d
b00000000000000000000000000000000 e
b00000000000000000000000000000000 f
b00000000000000000000000000000000 g
b00000000000000000000000000000000 h
1j
b00000000000000000000000000000000 l
b00000000000000000000000000000000 m
b00000000000000000010111111111100 n
b00000000000000000000000000000000 o
b00000000000000000000000000000000 p
b00000000000000000000000000000000 q
b00000000000000000000000000000000 r
b00000000000000000000000000000000 s
b00000000000000000000000000000000 t
b00000000000000000000000000000000 u
b00000000000000000000000000000000 v
b00000000000000000000000000000000 w
b00000000000000000000000000000000 x
b00000000000000000000000000000000 y
b00000000000000000000000000000000 z
b00000000000000000000000000000000 {
b00000000000000000000000000000000 |
b00000000000000000000000000000000 }
b00000000000000000000000000000000 ~
b00000000000000000000000000000000 !!
b00000000000000000000000000000000 "!
b00000000000000000000000000000000 #!
b00000000000000000000000000000000 $!
b00000000000000000000000000000000 %!
b00000000000000000000000000000000 &!
b00000000000000000000000000000000 '!
b00000000000000000000000000000000 (!
b00000000000000000000000000000000 )!
b00000000000000000000000000000000 *!
b00000000000000000000000000000000 +!
b00000000000000000000000000000000 ,!
b00000000000000000000000000000000 -!
11!
14!
b00 6!
b00 7!
08!
b01000001011101001110010100111010 :!
b11111110000000010000000100010011 ;!
b00000000000000000000000000000000 <!
b00000000000000000000000000000000 =!
b00000000000000000000000000000000 ?!
b11011111001101111101111101111010 @!
b00000000000000000000000000000000 A!
b00000000000000000000000000000000 B!
b11011111001101111101111101111010 C!
b00000 D!
b11011111001101111101111101111010 E!
b00000000000000000000000000000000 J!
b10110101001110001111011001111100 K!
b11011111001101111101111101111010 L!
b01000001011101001110010100111010 M!
b00000 N!
b00000000000000000000000000000000 O!
b11011111001101111101111101111010 P!
b11011111001101111101111101111010 Q!
b00 T!
b00000 U!
1W!
1\!
1_!
b00 a!
b00 b!
0c!
b0000 f!
b0001 g!
b0000 i!
b0001 j!
b0000 k!
1o!
1r!
b00 t!
b00 u!
0v!
1|!
b00000000000000000000000000000000 }!
b11011111001101111101111101111010 ~!
1!"
b11111110000000010000000100010011 #"
b00000000000000000100000000000000 $"
b00000000000000000000000000000000 %"
1'"
b11011111001101111101111101111010 +"
b00000000000000000000000000000000 ,"
1."
b01000001011101001110010100111010 2"
b00000000000000000000000000000000 5"
b00000000000000000000000000000000 6"
b00000000000000000000000000000000 7"
b00000000000000000000000000000000 8"
b00000000000000000010111111111100 9"
b00000000000000000000000000000000 :"
b00000000000000000000000000000000 ;"
b00000000000000000000000000000000 <"
b00000000000000000000000000000000 ="
b00000000000000000000000000000000 >"
b00000000000000000000000000000000 ?"
b00000000000000000000000000000000 @"
b00000000000000000000000000000000 A"
b00000000000000000000000000000000 B"
b00000000000000000000000000000000 C"
b00000000000000000000000000000000 D"
b00000000000000000000000000000000 E"
b00000000000000000000000000000000 F"
b00000000000000000000000000000000 G"
b00000000000000000000000000000000 H"
b00000000000000000000000000000000 I"
b00000000000000000000000000000000 J"
b00000000000000000000000000000000 K"
b00000000000000000000000000000000 L"
b00000000000000000000000000000000 M"
b00000000000000000000000000000000 N"
b00000000000000000000000000000000 O"
b00000000000000000000000000000000 P"
b00000000000000000000000000000000 Q"
b00000000000000000000000000000000 R"
b00000000000000000000000000000000 S"
b00000000000000000000000000000000 T"
b00000000000000000000000000000000 U"
b00000000000000000000000000000000 V"
b00000000000000000000000000100000 W"
b00000000000000000000000000000000 X"
b00000000000000000000000000000000 Y"
b00000000000000000010111111111100 Z"
b00000000000000000000000000000000 ["
b00000000000000000000000000000000 \"
b00000000000000000000000000000000 ]"
b00000000000000000000000000000000 ^"
b00000000000000000000000000000000 _"
b00000000000000000000000000000000 `"
b00000000000000000000000000000000 a"
b00000000000000000000000000000000 b"
b00000000000000000000000000000000 c"
b00000000000000000000000000000000 d"
b00000000000000000000000000000000 e"
b00000000000000000000000000000000 f"
b00000000000000000000000000000000 g"
b00000000000000000000000000000000 h"
b00000000000000000000000000000000 i"
b00000000000000000000000000000000 j"
b00000000000000000000000000000000 k"
b00000000000000000000000000000000 l"
b00000000000000000000000000000000 m"
b00000000000000000000000000000000 n"
b00000000000000000000000000000000 o"
b00000000000000000000000000000000 p"
b00000000000000000000000000000000 q"
b00000000000000000000000000000000 r"
b00000000000000000000000000000000 s"
b00000000000000000000000000000000 t"
b00000000000000000000000000000000 u"
b00000000000000000000000000000000 v"
b00000000000000000000000000000000 w"
#3
0#
0F
0i
0V!
0{!
0&"
0-"
#4
0$
0G
0j
0W!
0|!
0'"
0."
#5
1$
1G
1j
01!
04!
b01 7!
b11011111001101111101111101111010 :!
b00000000000000000000000000000000 ;!
b00000000000000000010111111111100 <!
b11111111111111111111111111100000 >!
b00000000000000000000000000000100 @!
b00000000000000000000000000000100 C!
b00000000000000000000000000000100 E!
b11111110000000010000000100010011 I!
b11111110000000010000000100010011 J!
b00000000000000000000000000000000 K!
b00000000000000000000000000000000 L!
b11011111001101111101111101111010 M!
b00000000000000000000000000000100 P!
b00000000000000000000000000000100 Q!
b1000 S!
1W!
b0010011 X!
0\!
0_!
b01 b!
b0001 f!
b0011 g!
b0010011 h!
b0001 i!
b0011 j!
b0001 k!
0o!
0r!
b01 u!
b11111110000000010000000100010011 x!
b11111111111111111111111111100000 y!
b0010011 z!
1|!
b00000000000000000000000000000000 ~!
0!"
b00000000000000000000000000000000 #"
1'"
b00000000000000000000000000000100 +"
1."
b00010 /"
b00000 0"
b00010 1"
b11011111001101111101111101111010 2"
b00000000000000000010111111111100 5"
#6
0$
0G
0j
0W!
0|!
0'"
0."
#7
1$
1G
1j
b10 6!
b10 7!
18!
b00000000000000000000000000000100 :!
b00000000000000000011000000011100 @!
b00000000000000000010111111111100 B!
b11111111111111111111111111100000 C!
b01000 D!
b00000000000000000011000000011100 E!
b00000000000000000000000000000000 J!
b00000000000000000010111111111100 K!
b00000000000000000000000000000100 M!
b01000 N!
b00000000000000000010111111111100 O!
b11111111111111111111111111100000 P!
b00000000000000000011000000011100 Q!
b10 T!
b01000 U!
1W!
b10 a!
b10 b!
1c!
b0011 f!
b0100 g!
b0011 i!
b0100 j!
b0011 k!
b10 t!
b10 u!
1v!
1|!
1'"
b00000000000000000011000000011100 +"
1."
b00000000000000000000000000000100 2"
#8
0$
0G
0j
0W!
0|!
0'"
0."
#9
1$
1G
1j
1/!
b00 6!
b01 7!
08!
19!
b00000000000000000011000000011100 :!
b00000000000000000000000000000100 @!
b00000000000000000000000000000000 B!
b00000000000000000000000000000100 C!
b00000 D!
b00000000000000000000000000000100 E!
b00000000000000000011000000011100 M!
b00000 N!
b00000000000000000000000000000000 O!
b00000000000000000000000000000100 P!
b00000000000000000000000000000100 Q!
b00 T!
b00000 U!
1W!
1Z!
b00 a!
b01 b!
0c!
1d!
b0100 f!
b0000 g!
b0100 i!
b0000 j!
b0100 k!
1m!
b00 t!
b01 u!
0v!
1w!
1|!
1'"
1("
b00000000000000000000000000000100 +"
1."
b00000000000000000011000000011100 2"
13"
#10
0$
0G
0j
0W!
0|!
0'"
0."
#11
1$
b00000000000000000011000000011100 (
1G
b00000000000000000011000000011100 K
1j
b00000000000000000011000000011100 n
0/!
11!
14!
b00 7!
09!
b00000000000000000000000000000100 :!
b00000000000100010010111000100011 ;!
b00000000000000000011000000011100 <!
b00000000000000000000000000000100 ?!
b00000000000000000000000000000100 A!
b00000000000000000000000000000100 B!
b00000000000000000000000000000000 C!
b00000000000000000000000000000100 M!
b00000000000000000000000000000100 O!
b00000000000000000000000000000000 P!
1W!
0Z!
1\!
1_!
b00 b!
0d!
b0000 f!
b0001 g!
b0000 i!
b0001 j!
b0000 k!
0m!
1o!
1r!
b00 u!
0w!
1|!
b00000000000000000000000000000100 }!
1!"
b00000000000100010010111000100011 #"
b00000000000000000000000000000001 %"
1'"
0("
b00000000000000000000000000000100 ,"
1."
b00000000000000000000000000000100 2"
03"
b00000000000000000011000000011100 5"
b00000000000000000011000000011100 9"
b00000000000000000011000000011100 Z"
#12
0$
0G
0j
0W!
0|!
0'"
0."
